Analyzing Covid-19 data using parameters | Data Science portfolio Thijmen Weijgertze
…
# normalize the data by dividing by population
covidDataJoined <- covidDataJoined %>% mutate(
    casesNormalized=totalCases / popData2020,
    deathsNormalized=totalDeaths / popData2020)

# death and cases in the same row in preparation for the plot (tidying data)
covidDataJoined <- covidDataJoined %>% pivot_longer(cols=c(totalCases,totalDeaths), names_to = "totalCases_totalDeaths", values_to = "Normalized")

# check the dataframe
covidDataJoined

## # A tibble: 60 × 7
##    geoId countriesAndTerritories popData2020 casesNormalized deathsNormalized
##    <fct> <chr>                         <int>           <dbl>            <dbl>
##  1 AT    Austria                     8901064         0.00566        0.000208 
##  2 AT    Austria                     8901064         0.00566        0.000208 
##  3 BE    Belgium                    11522440         0.00521        0.000136 
##  4 BE    Belgium                    11522440         0.00521        0.000136 
##  5 BG    Bulgaria                    6951482         0.00237        0.000218 
##  6 BG    Bulgaria                    6951482         0.00237        0.000218 
##  7 HR    Croatia                     4058165         0.00532        0.000273 
##  8 HR    Croatia                     4058165         0.00532        0.000273 
##  9 CY    Cyprus                       888005         0.00926        0.0000912
## 10 CY    Cyprus                       888005         0.00926        0.0000912
## # ℹ 50 more rows
## # ℹ 2 more variables: totalCases_totalDeaths <chr>, Normalized <int>
…
