Analyzing Covid-19 data using parameters | Data Science portfolio Thijmen Weijgertze
…
# normalize the data by dividing by population
covidDataJoined <- covidDataJoined %>% mutate(
    casesNormalized=totalCases / popData2020,
    deathsNormalized=totalDeaths / popData2020)

# death and cases in the same row in preparation for the plot (tidying data)
covidDataJoined <- covidDataJoined %>% pivot_longer(cols=c(totalCases,totalDeaths), names_to = "totalCases_totalDeaths", values_to = "Normalized")

# check the dataframe
covidDataJoined

## # A tibble: 60 × 7
##    geoId countriesAndTerritories popData2020 casesNormalized deathsNormalized
##    <fct> <chr>                         <int>           <dbl>            <dbl>
##  1 AT    Austria                     8901064        0.000562       0.0000504 
##  2 AT    Austria                     8901064        0.000562       0.0000504 
##  3 BE    Belgium                    11522440        0.00291        0.000563  
##  4 BE    Belgium                    11522440        0.00291        0.000563  
##  5 BG    Bulgaria                    6951482        0.000162       0.00000834
##  6 BG    Bulgaria                    6951482        0.000162       0.00000834
##  7 HR    Croatia                     4058165        0.000298       0.0000155 
##  8 HR    Croatia                     4058165        0.000298       0.0000155 
##  9 CY    Cyprus                       888005        0.000662       0.0000101 
## 10 CY    Cyprus                       888005        0.000662       0.0000101 
## # ℹ 50 more rows
## # ℹ 2 more variables: totalCases_totalDeaths <chr>, Normalized <int>
…
